{
	"2436": 2436,
	"2727": 2727,
	"3049": 3049,
	"4170": 4170,
	"12940": 12940,
	"17612": 17612,
	"38199": 38199,
	"68894": 68894,
	"69158": 69158,
	"99350": 99350,
	"109500": 109500,
	"111752": 111752,
	"121441": 121441,
	"127055": 127055,
	"146725": 146725,
	"150498": 150498,
	"163613": 163613,
	"179447": 179447,
	"185019": 185019,
	"202065": 202065,
	"222856": 222856,
	"224752": 224752,
	"229888": 229888,
	"244275": 244275,
	"255006": 255006,
	"285315": 285315,
	"301837": 301837,
	"308621": 308621,
	"308942": 308942,
	"314824": 314824,
	"337371": 337371,
	"361221": 361221,
	"370612": 370612,
	"370677": 370677,
	"385816": 385816,
	"394249": 394249,
	"399561": 399561,
	"402709": 402709,
	"410679": 410679,
	"412263": 412263,
	"422847": 422847,
	"445041": 445041,
	"450969": 450969,
	"456705": 456705,
	"526890": 526890,
	"540362": 540362,
	"557580": 557580,
	"580353": 580353,
	"582331": 582331,
	"584510": 584510,
	"610834": 610834,
	"618161": 618161,
	"632554": 632554,
	"642747": 642747,
	"647940": 647940,
	"648178": 648178,
	"658905": 658905,
	"666346": 666346,
	"666770": 666770,
	"678617": 678617,
	"681660": 681660,
	"699321": 699321,
	"705396": 705396,
	"716300": 716300,
	"723990": 723990,
	"745852": 745852,
	"750271": 750271,
	"751580": 751580,
	"763758": 763758,
	"770498": 770498,
	"778636": 778636,
	"780545": 780545,
	"798234": 798234,
	"814786": 814786,
	"816849": 816849,
	"817920": 817920,
	"844786": 844786,
	"876686": 876686,
	"878529": 878529,
	"881084": 881084,
	"891442": 891442,
	"896322": 896322,
	"911789": 911789,
	"916222": 916222,
	"921104": 921104,
	"925890": 925890,
	"944083": 944083,
	"944779": 944779,
	"947139": 947139,
	"949083": 949083,
	"949407": 949407,
	"953694": 953694,
	"958987": 958987,
	"959540": 959540,
	"962162": 962162,
	"964064": 964064,
	"965738": 965738,
	"968068": 968068,
	"968303": 968303,
	"969610": 969610,
	"970902": 970902,
	"971882": 971882,
	"972789": 972789,
	"976160": 976160,
	"978804": 978804,
	"984189": 984189,
	"992729": 992729,
	"992741": 992741,
	"993831": 993831,
	"1004615": 1004615,
	"1006105": 1006105,
	"1032057": 1032057,
	"1038614": 1038614,
	"1042811": 1042811,
	"1044147": 1044147,
	"1048765": 1048765,
	"1051675": 1051675,
	"1066986": 1066986,
	"1067874": 1067874,
	"1092206": 1092206,
	"1092542": 1092542,
	"1105263": 1105263,
	"1111394": 1111394,
	"1113543": 1113543,
	"1115212": 1115212,
	"1116432": 1116432,
	"1130822": 1130822,
	"1131814": 1131814,
	"1141166": 1141166,
	"1151669": 1151669,
	"1152314": 1152314,
	"1155410": 1155410,
	"1156452": 1156452,
	"1158358": 1158358,
	"1164914": 1164914,
	"1170232": 1170232,
	"1177060": 1177060,
	"1183508": 1183508,
	"1185272": 1185272,
	"1190853": 1190853,
	"1192506": 1192506,
	"1204160": 1204160,
	"1208389": 1208389,
	"1209390": 1209390,
	"1216178": 1216178,
	"1216700": 1216700,
	"1221896": 1221896,
	"1222172": 1222172,
	"1222462": 1222462,
	"1224382": 1224382,
	"1225099": 1225099,
	"1228774": 1228774,
	"1231000": 1231000,
	"1231783": 1231783,
	"1234200": 1234200,
	"1240282": 1240282,
	"1258260": 1258260,
	"1267557": 1267557,
	"1274199": 1274199,
	"1277973": 1277973,
	"1278022": 1278022,
	"1280260": 1280260,
	"1285579": 1285579,
	"1288687": 1288687,
	"1288977": 1288977,
	"1290723": 1290723,
	"1291882": 1291882,
	"1295630": 1295630,
	"1307384": 1307384,
	"1308239": 1308239,
	"1309366": 1309366,
	"1311177": 1311177,
	"1313789": 1313789,
	"1314929": 1314929,
	"1316309": 1316309,
	"1317100": 1317100,
	"1317864": 1317864,
	"1318411": 1318411,
	"1319220": 1319220,
	"1319254": 1319254,
	"1319833": 1319833,
	"1320526": 1320526,
	"1320759": 1320759,
	"1321712": 1321712,
	"1322727": 1322727,
	"1324344": 1324344,
	"1329114": 1329114,
	"1329854": 1329854,
	"1333417": 1333417,
	"1334100": 1334100,
	"1337182": 1337182,
	"1343002": 1343002,
	"1343032": 1343032,
	"1345004": 1345004,
	"1354139": 1354139,
	"1357887": 1357887,
	"1358397": 1358397,
	"1362476": 1362476,
	"1362619": 1362619,
	"1366785": 1366785,
	"1369090": 1369090,
	"1369328": 1369328,
	"1372496": 1372496,
	"1374738": 1374738,
	"1377709": 1377709,
	"1378252": 1378252,
	"1379845": 1379845,
	"1380956": 1380956,
	"1384075": 1384075,
	"1384855": 1384855,
	"1385177": 1385177,
	"1386111": 1386111,
	"1387459": 1387459,
	"1387646": 1387646,
	"1388273": 1388273,
	"1388641": 1388641,
	"1391038": 1391038,
	"1391143": 1391143,
	"1393427": 1393427,
	"1393511": 1393511,
	"1393526": 1393526,
	"1394399": 1394399,
	"1395039": 1395039,
	"1396635": 1396635,
	"1397522": 1397522,
	"1398569": 1398569,
	"1402445": 1402445,
	"1403295": 1403295,
	"1403495": 1403495,
	"1407647": 1407647,
	"1411592": 1411592,
	"1413802": 1413802,
	"1414878": 1414878,
	"1414985": 1414985,
	"1422274": 1422274,
	"1423929": 1423929,
	"1426581": 1426581,
	"1426605": 1426605,
	"1427642": 1427642,
	"1428649": 1428649,
	"1429509": 1429509,
	"1432417": 1432417,
	"1433306": 1433306,
	"1437346": 1437346,
	"1439790": 1439790,
	"1440376": 1440376,
	"1442456": 1442456,
	"1442558": 1442558,
	"1443260": 1443260,
	"1444205": 1444205,
	"1446490": 1446490,
	"1447621": 1447621,
	"1449536": 1449536,
	"1451226": 1451226,
	"1452792": 1452792,
	"1452941": 1452941,
	"1453114": 1453114,
	"1453213": 1453213,
	"1453576": 1453576,
	"1454550": 1454550,
	"1455613": 1455613,
	"1455938": 1455938,
	"1456999": 1456999,
	"1462016": 1462016,
	"1462406": 1462406,
	"1463442": 1463442,
	"1463916": 1463916,
	"1464752": 1464752,
	"1465099": 1465099,
	"1465122": 1465122,
	"1465233": 1465233,
	"1465246": 1465246,
	"1469016": 1469016,
	"1469143": 1469143,
	"1469191": 1469191,
	"1469548": 1469548,
	"1471620": 1471620,
	"1474119": 1474119,
	"1474400": 1474400,
	"1474447": 1474447,
	"1475040": 1475040,
	"1476688": 1476688,
	"1477215": 1477215,
	"1477993": 1477993,
	"1479517": 1479517,
	"1483023": 1483023,
	"1483478": 1483478,
	"1483760": 1483760,
	"1484421": 1484421,
	"1485433": 1485433,
	"1486940": 1486940,
	"1487237": 1487237,
	"1487722": 1487722,
	"1488103": 1488103,
	"1488142": 1488142,
	"1488205": 1488205,
	"1488984": 1488984,
	"1489228": 1489228,
	"1489667": 1489667,
	"1489865": 1489865,
	"1489906": 1489906,
	"1490178": 1490178,
	"1491922": 1491922,
	"1492494": 1492494,
	"1492545": 1492545,
	"1492553": 1492553,
	"1492573": 1492573,
	"1492772": 1492772,
	"1493137": 1493137,
	"1493868": 1493868,
	"1494128": 1494128,
	"1494501": 1494501,
	"1494532": 1494532,
	"1494986": 1494986,
	"1495156": 1495156,
	"1495170": 1495170,
	"1495523": 1495523,
	"1495524": 1495524,
	"1496053": 1496053,
	"1496280": 1496280,
	"1496449": 1496449,
	"1496450": 1496450,
	"1497109": 1497109,
	"1497697": 1497697,
	"1498923": 1498923,
	"1499015": 1499015,
	"1499144": 1499144,
	"1499235": 1499235,
	"1499352": 1499352,
	"1499412": 1499412,
	"1500265": 1500265,
	"1500279": 1500279,
	"1500298": 1500298,
	"1500428": 1500428,
	"1500476": 1500476,
	"1500492": 1500492,
	"1500604": 1500604,
	"1500665": 1500665,
	"1501330": 1501330,
	"1501428": 1501428,
	"1501590": 1501590,
	"1501776": 1501776,
	"1501932": 1501932,
	"1502077": 1502077,
	"1502505": 1502505,
	"1502691": 1502691,
	"1502731": 1502731,
	"1502806": 1502806,
	"1502924": 1502924,
	"1503109": 1503109,
	"1503120": 1503120,
	"1503333": 1503333,
	"1503800": 1503800,
	"1503892": 1503892,
	"1503897": 1503897,
	"1503911": 1503911,
	"1503976": 1503976,
	"1504675": 1504675,
	"1504786": 1504786,
	"1504912": 1504912,
	"1505069": 1505069,
	"1505080": 1505080,
	"1505194": 1505194,
	"1505195": 1505195,
	"1505506": 1505506,
	"1505509": 1505509,
	"1505594": 1505594,
	"1505603": 1505603,
	"1505616": 1505616,
	"1505618": 1505618,
	"1505661": 1505661,
	"1505725": 1505725,
	"1505741": 1505741,
	"1505753": 1505753,
	"1506450": 1506450,
	"1506493": 1506493,
	"1506529": 1506529,
	"1506589": 1506589,
	"1506727": 1506727,
	"1506785": 1506785,
	"1506850": 1506850,
	"1506873": 1506873,
	"1507079": 1507079,
	"1507115": 1507115,
	"1507180": 1507180,
	"1507199": 1507199,
	"1507591": 1507591,
	"1507602": 1507602,
	"1507647": 1507647,
	"1507681": 1507681,
	"1507826": 1507826,
	"1507896": 1507896,
	"1507974": 1507974,
	"1508032": 1508032,
	"1508129": 1508129,
	"1508172": 1508172,
	"1508174": 1508174,
	"1508206": 1508206,
	"1508285": 1508285,
	"1508316": 1508316,
	"1508398": 1508398
}